2.2 Different types of tokens | Supervised Machine Learning for Text Analysis in R Book Club
…
## List of 6
##  $ : chr [1:57] "f" "a" "r" "d" ...
##  $ : chr [1:57] "r" "e" "s" "t" ...
##  $ : chr [1:61] "w" "i" "s" "h" ...
##  $ : chr [1:56] "a" "r" "o" "u" ...
##  $ : chr [1:64] "l" "i" "t" "t" ...
##  $ : chr [1:64] "t" "h" "e" "m" ...

The same thing in unnest_tokens()

tibble(text = the_fir_tree) %>% 
  unnest_tokens(word, text, token = "characters")

## # A tibble: 13,429 × 1
##    word 
##    <chr>
##  1 f    
##  2 a    
##  3 r    
##  4 d    
##  5 o    
##  6 w    
##  7 n    
##  8 i    
##  9 n    
## 10 t    
## # … with 13,419 more rows
…
